{
  "name": "Fejes Ugrás",
  "creatingDate": "2018-Aug-01 17:44",
  "scenes": [
    {
      "deads": [
        {
          "group": {
            "groupID": "740fa116-1118-4247-8191-04c7a8501f16",
            "groupName": "FentoPlafon"
          },
          "id": "5dec12ed-2657-4208-8550-525f8d5b5d26",
          "name": "asderJOO",
          "posHoists": [
            {
              "id": 9,
              "value": 24707
            },
            {
              "id": 10,
              "value": 23099
            },
            {
              "id": 36,
              "value": 7147
            },
            {
              "id": 6,
              "value": 12660
            },
            {
              "id": 5,
              "value": 14684
            },
            {
              "id": 4,
              "value": 14621
            },
            {
              "id": 3,
              "value": 26337
            },
            {
              "id": 28,
              "value": 10320
            }
          ]
        }
      ],
      "groups": [
        {
          "deads": [
            {
              "id": "5dec12ed-2657-4208-8550-525f8d5b5d26",
              "name": "asderJOO"
            },
            {
              "id": "3caa33d2-7d48-4e8d-8319-82ff7ed3a272",
              "name": "Második"
            }
          ],
          "hoists": [
            {
              "id": 9,
              "targets": {}
            },
            {
              "id": 10,
              "targets": {}
            },
            {
              "id": 36,
              "targets": {}
            },
            {
              "id": 6,
              "targets": {}
            },
            {
              "id": 5,
              "targets": {}
            },
            {
              "id": 4,
              "targets": {}
            },
            {
              "id": 3,
              "targets": {}
            },
            {
              "id": 28,
              "targets": {}
            }
          ],
          "id": "740fa116-1118-4247-8191-04c7a8501f16",
          "joystick": null,
          "maxSpeed": null,
          "name": "FentoPlafon",
          "syncMode": "idő",
          "sysMode": null
        }
      ],
      "id": "cc0f7628-34aa-45cc-a2e0-da524266d2a2",
      "name": ""
    },
    {
      "deads": [
        {
          "group": {
            "groupID": "942a9b80-1a5a-4106-bada-4877339c8390",
            "groupName": "tril"
          },
          "id": "1f00a7c3-41c1-48c7-b775-dbd83ffd78d1",
          "name": "qwer",
          "posHoists": [
            {
              "id": 18,
              "value": 14508
            },
            {
              "id": 17,
              "value": 11814
            },
            {
              "id": 2,
              "value": 11536
            }
          ]
        },
        {
          "group": {
            "groupID": "740fa116-1118-4247-8191-04c7a8501f16",
            "groupName": "FentoPlafon"
          },
          "id": "5dec12ed-2657-4208-8550-525f8d5b5d26",
          "name": "asderJOO",
          "posHoists": [
            {
              "id": 9,
              "value": 24707
            },
            {
              "id": 10,
              "value": 23099
            },
            {
              "id": 36,
              "value": 7147
            },
            {
              "id": 6,
              "value": 12660
            },
            {
              "id": 5,
              "value": 14684
            },
            {
              "id": 4,
              "value": 14621
            },
            {
              "id": 3,
              "value": 26337
            },
            {
              "id": 28,
              "value": 10320
            }
          ]
        }
      ],
      "groups": [
        {
          "deads": [
            {
              "id": "1f00a7c3-41c1-48c7-b775-dbd83ffd78d1",
              "name": "qwer"
            }
          ],
          "hoists": [
            {
              "id": 18,
              "targets": {}
            },
            {
              "id": 17,
              "targets": {}
            },
            {
              "id": 2,
              "targets": {}
            }
          ],
          "id": "942a9b80-1a5a-4106-bada-4877339c8390",
          "joystick": 1,
          "maxSpeed": null,
          "name": "tril",
          "syncMode": "út",
          "sysMode": null
        },
        {
          "deads": [
            {
              "id": "5dec12ed-2657-4208-8550-525f8d5b5d26",
              "name": "asderJOO"
            },
            {
              "id": "3caa33d2-7d48-4e8d-8319-82ff7ed3a272",
              "name": "Második"
            }
          ],
          "hoists": [
            {
              "id": 9,
              "targets": {}
            },
            {
              "id": 10,
              "targets": {}
            },
            {
              "id": 36,
              "targets": {}
            },
            {
              "id": 6,
              "targets": {}
            },
            {
              "id": 5,
              "targets": {}
            },
            {
              "id": 4,
              "targets": {}
            },
            {
              "id": 3,
              "targets": {}
            },
            {
              "id": 28,
              "targets": {}
            }
          ],
          "id": "740fa116-1118-4247-8191-04c7a8501f16",
          "joystick": 4,
          "maxSpeed": null,
          "name": "FentoPlafon",
          "syncMode": "idő",
          "sysMode": null
        }
      ],
      "id": "59935ba4-540c-4274-af1d-9390c5fb3a38",
      "name": ""
    },
    {
      "deads": [
        {
          "group": {
            "groupID": "740fa116-1118-4247-8191-04c7a8501f16",
            "groupName": "FentoPlafon"
          },
          "id": "5dec12ed-2657-4208-8550-525f8d5b5d26",
          "name": "asderJOO",
          "posHoists": [
            {
              "id": 9,
              "value": 24707
            },
            {
              "id": 10,
              "value": 23099
            },
            {
              "id": 36,
              "value": 7147
            },
            {
              "id": 6,
              "value": 12660
            },
            {
              "id": 5,
              "value": 14684
            },
            {
              "id": 4,
              "value": 14621
            },
            {
              "id": 3,
              "value": 26337
            },
            {
              "id": 28,
              "value": 10320
            }
          ]
        }
      ],
      "groups": [
        {
          "deads": [
            {
              "id": "5dec12ed-2657-4208-8550-525f8d5b5d26",
              "name": "asderJOO"
            },
            {
              "id": "3caa33d2-7d48-4e8d-8319-82ff7ed3a272",
              "name": "Második"
            }
          ],
          "hoists": [
            {
              "id": 9,
              "targets": {}
            },
            {
              "id": 10,
              "targets": {}
            },
            {
              "id": 36,
              "targets": {}
            },
            {
              "id": 6,
              "targets": {}
            },
            {
              "id": 5,
              "targets": {}
            },
            {
              "id": 4,
              "targets": {}
            },
            {
              "id": 3,
              "targets": {}
            },
            {
              "id": 28,
              "targets": {}
            }
          ],
          "id": "740fa116-1118-4247-8191-04c7a8501f16",
          "joystick": 1,
          "maxSpeed": null,
          "name": "FentoPlafon",
          "syncMode": "idő",
          "sysMode": null
        }
      ],
      "id": "486a68bd-0c35-467b-ab76-66e554df232a",
      "name": ""
    },
    {
      "deads": [
        {
          "group": {
            "groupID": "740fa116-1118-4247-8191-04c7a8501f16",
            "groupName": "FentoPlafon"
          },
          "id": "5dec12ed-2657-4208-8550-525f8d5b5d26",
          "name": "asderJOO",
          "posHoists": [
            {
              "id": 9,
              "value": 24707
            },
            {
              "id": 10,
              "value": 23099
            },
            {
              "id": 36,
              "value": 7147
            },
            {
              "id": 6,
              "value": 12660
            },
            {
              "id": 5,
              "value": 14684
            },
            {
              "id": 4,
              "value": 14621
            },
            {
              "id": 3,
              "value": 26337
            },
            {
              "id": 28,
              "value": 10320
            }
          ]
        }
      ],
      "groups": [
        {
          "deads": [
            {
              "id": "5dec12ed-2657-4208-8550-525f8d5b5d26",
              "name": "asderJOO"
            },
            {
              "id": "3caa33d2-7d48-4e8d-8319-82ff7ed3a272",
              "name": "Második"
            }
          ],
          "hoists": [
            {
              "id": 9,
              "targets": {}
            },
            {
              "id": 10,
              "targets": {}
            },
            {
              "id": 36,
              "targets": {}
            },
            {
              "id": 6,
              "targets": {}
            },
            {
              "id": 5,
              "targets": {}
            },
            {
              "id": 4,
              "targets": {}
            },
            {
              "id": 3,
              "targets": {}
            },
            {
              "id": 28,
              "targets": {}
            }
          ],
          "id": "740fa116-1118-4247-8191-04c7a8501f16",
          "joystick": null,
          "maxSpeed": null,
          "name": "FentoPlafon",
          "syncMode": "idő",
          "sysMode": null
        }
      ],
      "id": "dummy1",
      "name": ""
    },
    {
      "deads": [
        {
          "group": {
            "groupID": "740fa116-1118-4247-8191-04c7a8501f16",
            "groupName": "FentoPlafon"
          },
          "id": "5dec12ed-2657-4208-8550-525f8d5b5d26",
          "name": "asderJOO",
          "posHoists": [
            {
              "id": 9,
              "value": 24707
            },
            {
              "id": 10,
              "value": 23099
            },
            {
              "id": 36,
              "value": 7147
            },
            {
              "id": 6,
              "value": 12660
            },
            {
              "id": 5,
              "value": 14684
            },
            {
              "id": 4,
              "value": 14621
            },
            {
              "id": 3,
              "value": 26337
            },
            {
              "id": 28,
              "value": 10320
            }
          ]
        },
        {
          "group": {
            "groupID": "942a9b80-1a5a-4106-bada-4877339c8390",
            "groupName": "tril"
          },
          "id": "1f00a7c3-41c1-48c7-b775-dbd83ffd78d1",
          "name": "qwer",
          "posHoists": [
            {
              "id": 18,
              "value": 14508
            },
            {
              "id": 17,
              "value": 11814
            },
            {
              "id": 2,
              "value": 11536
            }
          ]
        }
      ],
      "groups": [
        {
          "deads": [
            {
              "id": "5dec12ed-2657-4208-8550-525f8d5b5d26",
              "name": "asderJOO"
            },
            {
              "id": "3caa33d2-7d48-4e8d-8319-82ff7ed3a272",
              "name": "Második"
            }
          ],
          "hoists": [
            {
              "id": 9,
              "targets": {}
            },
            {
              "id": 10,
              "targets": {}
            },
            {
              "id": 36,
              "targets": {}
            },
            {
              "id": 6,
              "targets": {}
            },
            {
              "id": 5,
              "targets": {}
            },
            {
              "id": 4,
              "targets": {}
            },
            {
              "id": 3,
              "targets": {}
            },
            {
              "id": 28,
              "targets": {}
            }
          ],
          "id": "740fa116-1118-4247-8191-04c7a8501f16",
          "joystick": null,
          "maxSpeed": null,
          "name": "FentoPlafon",
          "syncMode": "idő",
          "sysMode": null
        },
        {
          "deads": [
            {
              "id": "1f00a7c3-41c1-48c7-b775-dbd83ffd78d1",
              "name": "qwer"
            }
          ],
          "hoists": [
            {
              "id": 18,
              "targets": {}
            },
            {
              "id": 17,
              "targets": {}
            },
            {
              "id": 2,
              "targets": {}
            }
          ],
          "id": "942a9b80-1a5a-4106-bada-4877339c8390",
          "joystick": 1,
          "maxSpeed": null,
          "name": "tril",
          "syncMode": "út",
          "sysMode": null
        }
      ],
      "id": "27880f7c-e9cc-4632-b93a-7bd11d346893",
      "name": ""
    },
    {
      "deads": [
        {
          "group": {
            "groupID": "942a9b80-1a5a-4106-bada-4877339c8390",
            "groupName": "tril"
          },
          "id": "1f00a7c3-41c1-48c7-b775-dbd83ffd78d1",
          "name": "qwer",
          "posHoists": [
            {
              "id": 18,
              "value": 14508
            },
            {
              "id": 17,
              "value": 11814
            },
            {
              "id": 2,
              "value": 11536
            }
          ]
        }
      ],
      "groups": [
        {
          "deads": [
            {
              "id": "1f00a7c3-41c1-48c7-b775-dbd83ffd78d1",
              "name": "qwer"
            }
          ],
          "hoists": [
            {
              "id": 18,
              "targets": {}
            },
            {
              "id": 17,
              "targets": {}
            },
            {
              "id": 2,
              "targets": {}
            }
          ],
          "id": "942a9b80-1a5a-4106-bada-4877339c8390",
          "joystick": 2,
          "maxSpeed": null,
          "name": "tril",
          "syncMode": "út",
          "sysMode": null
        }
      ],
      "id": "d330e4e6-8fbb-4706-96ff-9a8b10a0790d",
      "name": ""
    },
    {
      "deads": [],
      "groups": [],
      "id": "72e51c7a-ea81-4b08-8be8-8eb77a076765",
      "name": ""
    }
  ]
}